digraph "../../benchmarks/hwmcc11/single/pdtpmsudc8.aig" {
"2"[shape=box];
I0[shape=triangle,color=blue];
"2"->I0[arrowhead=none];
"4"[shape=box];
I1[shape=triangle,color=blue];
"4"->I1[arrowhead=none];
"6"[shape=box];
I2[shape=triangle,color=blue];
"6"->I2[arrowhead=none];
"8"[shape=box];
I3[shape=triangle,color=blue];
"8"->I3[arrowhead=none];
"10"[shape=box];
I4[shape=triangle,color=blue];
"10"->I4[arrowhead=none];
"12"[shape=box];
I5[shape=triangle,color=blue];
"12"->I5[arrowhead=none];
"14"[shape=box];
I6[shape=triangle,color=blue];
"14"->I6[arrowhead=none];
"16"[shape=box];
I7[shape=triangle,color=blue];
"16"->I7[arrowhead=none];
"18"[shape=box];
I8[shape=triangle,color=blue];
"18"->I8[arrowhead=none];
"20"[shape=box];
I9[shape=triangle,color=blue];
"20"->I9[arrowhead=none];
"22"[shape=box];
I10[shape=triangle,color=blue];
"22"->I10[arrowhead=none];
"24"[shape=box];
I11[shape=triangle,color=blue];
"24"->I11[arrowhead=none];
"74"->"64"[arrowhead=dot];
"74"->"60"[arrowhead=dot];
"76"->"64"[arrowhead=none];
"76"->"60"[arrowhead=none];
"78"->"76"[arrowhead=dot];
"78"->"74"[arrowhead=dot];
"80"->"36"[arrowhead=dot];
"80"->"30"[arrowhead=dot];
"82"->"36"[arrowhead=none];
"82"->"30"[arrowhead=none];
"84"->"82"[arrowhead=dot];
"84"->"80"[arrowhead=dot];
"86"->"52"[arrowhead=dot];
"86"->"48"[arrowhead=dot];
"88"->"52"[arrowhead=none];
"88"->"48"[arrowhead=none];
"90"->"88"[arrowhead=dot];
"90"->"86"[arrowhead=dot];
"92"->"72"[arrowhead=dot];
"92"->"66"[arrowhead=dot];
"94"->"72"[arrowhead=none];
"94"->"66"[arrowhead=none];
"96"->"94"[arrowhead=dot];
"96"->"92"[arrowhead=dot];
"98"->"40"[arrowhead=dot];
"98"->"34"[arrowhead=dot];
"100"->"40"[arrowhead=none];
"100"->"34"[arrowhead=none];
"102"->"100"[arrowhead=dot];
"102"->"98"[arrowhead=dot];
"104"->"56"[arrowhead=dot];
"104"->"54"[arrowhead=dot];
"106"->"56"[arrowhead=none];
"106"->"54"[arrowhead=none];
"108"->"106"[arrowhead=dot];
"108"->"104"[arrowhead=dot];
"110"->"70"[arrowhead=dot];
"110"->"26"[arrowhead=dot];
"112"->"70"[arrowhead=none];
"112"->"26"[arrowhead=none];
"114"->"112"[arrowhead=dot];
"114"->"110"[arrowhead=dot];
"116"->"44"[arrowhead=dot];
"116"->"38"[arrowhead=dot];
"118"->"44"[arrowhead=none];
"118"->"38"[arrowhead=none];
"120"->"118"[arrowhead=dot];
"120"->"116"[arrowhead=dot];
"122"->"84"[arrowhead=none];
"122"->"78"[arrowhead=none];
"124"->"122"[arrowhead=none];
"124"->"90"[arrowhead=none];
"126"->"124"[arrowhead=none];
"126"->"96"[arrowhead=none];
"128"->"126"[arrowhead=none];
"128"->"102"[arrowhead=none];
"130"->"128"[arrowhead=none];
"130"->"108"[arrowhead=none];
"132"->"130"[arrowhead=none];
"132"->"114"[arrowhead=none];
"134"->"132"[arrowhead=none];
"134"->"120"[arrowhead=none];
"136"->"134"[arrowhead=none];
"136"->"4"[arrowhead=none];
"138"->"136"[arrowhead=none];
"138"->"2"[arrowhead=dot];
"140"->"138"[arrowhead=none];
"140"->"6"[arrowhead=dot];
"142"->"68"[arrowhead=none];
"142"->"50"[arrowhead=none];
"144"->"142"[arrowhead=none];
"144"->"32"[arrowhead=none];
"146"->"144"[arrowhead=none];
"146"->"62"[arrowhead=none];
"148"->"146"[arrowhead=none];
"148"->"46"[arrowhead=none];
"150"->"148"[arrowhead=none];
"150"->"28"[arrowhead=none];
"152"->"150"[arrowhead=none];
"152"->"58"[arrowhead=none];
"154"->"152"[arrowhead=none];
"154"->"42"[arrowhead=none];
"156"->"154"[arrowhead=none];
"156"->"4"[arrowhead=none];
"158"->"156"[arrowhead=none];
"158"->"2"[arrowhead=dot];
"160"->"158"[arrowhead=none];
"160"->"6"[arrowhead=dot];
"162"->"160"[arrowhead=none];
"162"->"140"[arrowhead=dot];
"164"->"160"[arrowhead=dot];
"164"->"140"[arrowhead=none];
"166"->"164"[arrowhead=dot];
"166"->"162"[arrowhead=dot];
"168"->"4"[arrowhead=none];
"168"->"2"[arrowhead=dot];
"170"->"168"[arrowhead=none];
"170"->"6"[arrowhead=dot];
"172"->"170"[arrowhead=dot];
"172"->"64"[arrowhead=none];
"174"->"170"[arrowhead=none];
"174"->"64"[arrowhead=dot];
"176"->"174"[arrowhead=dot];
"176"->"172"[arrowhead=dot];
"178"->"64"[arrowhead=dot];
"178"->"36"[arrowhead=none];
"180"->"64"[arrowhead=none];
"180"->"36"[arrowhead=dot];
"182"->"180"[arrowhead=dot];
"182"->"178"[arrowhead=dot];
"184"->"170"[arrowhead=dot];
"184"->"36"[arrowhead=none];
"186"->"182"[arrowhead=dot];
"186"->"170"[arrowhead=none];
"188"->"186"[arrowhead=dot];
"188"->"184"[arrowhead=dot];
"190"->"64"[arrowhead=none];
"190"->"36"[arrowhead=none];
"192"->"190"[arrowhead=dot];
"192"->"52"[arrowhead=none];
"194"->"190"[arrowhead=none];
"194"->"52"[arrowhead=dot];
"196"->"194"[arrowhead=dot];
"196"->"192"[arrowhead=dot];
"198"->"170"[arrowhead=dot];
"198"->"52"[arrowhead=none];
"200"->"196"[arrowhead=dot];
"200"->"170"[arrowhead=none];
"202"->"200"[arrowhead=dot];
"202"->"198"[arrowhead=dot];
"204"->"190"[arrowhead=none];
"204"->"52"[arrowhead=none];
"206"->"204"[arrowhead=dot];
"206"->"72"[arrowhead=none];
"208"->"204"[arrowhead=none];
"208"->"72"[arrowhead=dot];
"210"->"208"[arrowhead=dot];
"210"->"206"[arrowhead=dot];
"212"->"170"[arrowhead=dot];
"212"->"72"[arrowhead=none];
"214"->"210"[arrowhead=dot];
"214"->"170"[arrowhead=none];
"216"->"214"[arrowhead=dot];
"216"->"212"[arrowhead=dot];
"218"->"204"[arrowhead=none];
"218"->"72"[arrowhead=none];
"220"->"218"[arrowhead=dot];
"220"->"40"[arrowhead=none];
"222"->"218"[arrowhead=none];
"222"->"40"[arrowhead=dot];
"224"->"222"[arrowhead=dot];
"224"->"220"[arrowhead=dot];
"226"->"170"[arrowhead=dot];
"226"->"40"[arrowhead=none];
"228"->"224"[arrowhead=dot];
"228"->"170"[arrowhead=none];
"230"->"228"[arrowhead=dot];
"230"->"226"[arrowhead=dot];
"232"->"218"[arrowhead=none];
"232"->"40"[arrowhead=none];
"234"->"232"[arrowhead=dot];
"234"->"56"[arrowhead=none];
"236"->"232"[arrowhead=none];
"236"->"56"[arrowhead=dot];
"238"->"236"[arrowhead=dot];
"238"->"234"[arrowhead=dot];
"240"->"170"[arrowhead=dot];
"240"->"56"[arrowhead=none];
"242"->"238"[arrowhead=dot];
"242"->"170"[arrowhead=none];
"244"->"242"[arrowhead=dot];
"244"->"240"[arrowhead=dot];
"246"->"232"[arrowhead=none];
"246"->"56"[arrowhead=none];
"248"->"246"[arrowhead=dot];
"248"->"26"[arrowhead=none];
"250"->"246"[arrowhead=none];
"250"->"26"[arrowhead=dot];
"252"->"250"[arrowhead=dot];
"252"->"248"[arrowhead=dot];
"254"->"170"[arrowhead=dot];
"254"->"26"[arrowhead=none];
"256"->"252"[arrowhead=dot];
"256"->"170"[arrowhead=none];
"258"->"256"[arrowhead=dot];
"258"->"254"[arrowhead=dot];
"260"->"246"[arrowhead=none];
"260"->"26"[arrowhead=none];
"262"->"260"[arrowhead=dot];
"262"->"44"[arrowhead=none];
"264"->"260"[arrowhead=none];
"264"->"44"[arrowhead=dot];
"266"->"264"[arrowhead=dot];
"266"->"262"[arrowhead=dot];
"268"->"170"[arrowhead=dot];
"268"->"44"[arrowhead=none];
"270"->"266"[arrowhead=dot];
"270"->"170"[arrowhead=none];
"272"->"270"[arrowhead=dot];
"272"->"268"[arrowhead=dot];
"274"->"6"[arrowhead=dot];
"274"->"2"[arrowhead=dot];
"276"->"6"[arrowhead=dot];
"276"->"2"[arrowhead=none];
"278"->"276"[arrowhead=dot];
"278"->"6"[arrowhead=dot];
"280"->"278"[arrowhead=none];
"280"->"274"[arrowhead=dot];
"282"->"68"[arrowhead=dot];
"282"->"4"[arrowhead=dot];
"284"->"68"[arrowhead=none];
"284"->"4"[arrowhead=none];
"286"->"284"[arrowhead=dot];
"286"->"282"[arrowhead=dot];
"288"->"286"[arrowhead=dot];
"288"->"2"[arrowhead=dot];
"290"->"8"[arrowhead=none];
"290"->"2"[arrowhead=none];
"292"->"290"[arrowhead=dot];
"292"->"288"[arrowhead=dot];
"294"->"292"[arrowhead=dot];
"294"->"6"[arrowhead=dot];
"296"->"294"[arrowhead=dot];
"296"->"6"[arrowhead=dot];
"298"->"68"[arrowhead=dot];
"298"->"50"[arrowhead=dot];
"300"->"298"[arrowhead=dot];
"300"->"142"[arrowhead=dot];
"302"->"50"[arrowhead=dot];
"302"->"4"[arrowhead=dot];
"304"->"300"[arrowhead=dot];
"304"->"4"[arrowhead=none];
"306"->"304"[arrowhead=dot];
"306"->"302"[arrowhead=dot];
"308"->"306"[arrowhead=dot];
"308"->"2"[arrowhead=dot];
"310"->"10"[arrowhead=none];
"310"->"2"[arrowhead=none];
"312"->"310"[arrowhead=dot];
"312"->"308"[arrowhead=dot];
"314"->"312"[arrowhead=dot];
"314"->"6"[arrowhead=dot];
"316"->"314"[arrowhead=dot];
"316"->"6"[arrowhead=dot];
"318"->"142"[arrowhead=dot];
"318"->"32"[arrowhead=dot];
"320"->"318"[arrowhead=dot];
"320"->"144"[arrowhead=dot];
"322"->"32"[arrowhead=dot];
"322"->"4"[arrowhead=dot];
"324"->"320"[arrowhead=dot];
"324"->"4"[arrowhead=none];
"326"->"324"[arrowhead=dot];
"326"->"322"[arrowhead=dot];
"328"->"326"[arrowhead=dot];
"328"->"2"[arrowhead=dot];
"330"->"12"[arrowhead=none];
"330"->"2"[arrowhead=none];
"332"->"330"[arrowhead=dot];
"332"->"328"[arrowhead=dot];
"334"->"332"[arrowhead=dot];
"334"->"6"[arrowhead=dot];
"336"->"334"[arrowhead=dot];
"336"->"6"[arrowhead=dot];
"338"->"144"[arrowhead=dot];
"338"->"62"[arrowhead=dot];
"340"->"338"[arrowhead=dot];
"340"->"146"[arrowhead=dot];
"342"->"62"[arrowhead=dot];
"342"->"4"[arrowhead=dot];
"344"->"340"[arrowhead=dot];
"344"->"4"[arrowhead=none];
"346"->"344"[arrowhead=dot];
"346"->"342"[arrowhead=dot];
"348"->"346"[arrowhead=dot];
"348"->"2"[arrowhead=dot];
"350"->"14"[arrowhead=none];
"350"->"2"[arrowhead=none];
"352"->"350"[arrowhead=dot];
"352"->"348"[arrowhead=dot];
"354"->"352"[arrowhead=dot];
"354"->"6"[arrowhead=dot];
"356"->"354"[arrowhead=dot];
"356"->"6"[arrowhead=dot];
"358"->"146"[arrowhead=dot];
"358"->"46"[arrowhead=dot];
"360"->"358"[arrowhead=dot];
"360"->"148"[arrowhead=dot];
"362"->"46"[arrowhead=dot];
"362"->"4"[arrowhead=dot];
"364"->"360"[arrowhead=dot];
"364"->"4"[arrowhead=none];
"366"->"364"[arrowhead=dot];
"366"->"362"[arrowhead=dot];
"368"->"366"[arrowhead=dot];
"368"->"2"[arrowhead=dot];
"370"->"16"[arrowhead=none];
"370"->"2"[arrowhead=none];
"372"->"370"[arrowhead=dot];
"372"->"368"[arrowhead=dot];
"374"->"372"[arrowhead=dot];
"374"->"6"[arrowhead=dot];
"376"->"374"[arrowhead=dot];
"376"->"6"[arrowhead=dot];
"378"->"148"[arrowhead=dot];
"378"->"28"[arrowhead=dot];
"380"->"378"[arrowhead=dot];
"380"->"150"[arrowhead=dot];
"382"->"28"[arrowhead=dot];
"382"->"4"[arrowhead=dot];
"384"->"380"[arrowhead=dot];
"384"->"4"[arrowhead=none];
"386"->"384"[arrowhead=dot];
"386"->"382"[arrowhead=dot];
"388"->"386"[arrowhead=dot];
"388"->"2"[arrowhead=dot];
"390"->"18"[arrowhead=none];
"390"->"2"[arrowhead=none];
"392"->"390"[arrowhead=dot];
"392"->"388"[arrowhead=dot];
"394"->"392"[arrowhead=dot];
"394"->"6"[arrowhead=dot];
"396"->"394"[arrowhead=dot];
"396"->"6"[arrowhead=dot];
"398"->"150"[arrowhead=dot];
"398"->"58"[arrowhead=dot];
"400"->"398"[arrowhead=dot];
"400"->"152"[arrowhead=dot];
"402"->"58"[arrowhead=dot];
"402"->"4"[arrowhead=dot];
"404"->"400"[arrowhead=dot];
"404"->"4"[arrowhead=none];
"406"->"404"[arrowhead=dot];
"406"->"402"[arrowhead=dot];
"408"->"406"[arrowhead=dot];
"408"->"2"[arrowhead=dot];
"410"->"20"[arrowhead=none];
"410"->"2"[arrowhead=none];
"412"->"410"[arrowhead=dot];
"412"->"408"[arrowhead=dot];
"414"->"412"[arrowhead=dot];
"414"->"6"[arrowhead=dot];
"416"->"414"[arrowhead=dot];
"416"->"6"[arrowhead=dot];
"418"->"152"[arrowhead=dot];
"418"->"42"[arrowhead=dot];
"420"->"418"[arrowhead=dot];
"420"->"154"[arrowhead=dot];
"422"->"42"[arrowhead=dot];
"422"->"4"[arrowhead=dot];
"424"->"420"[arrowhead=dot];
"424"->"4"[arrowhead=none];
"426"->"424"[arrowhead=dot];
"426"->"422"[arrowhead=dot];
"428"->"426"[arrowhead=dot];
"428"->"2"[arrowhead=dot];
"430"->"22"[arrowhead=none];
"430"->"2"[arrowhead=none];
"432"->"430"[arrowhead=dot];
"432"->"428"[arrowhead=dot];
"434"->"432"[arrowhead=dot];
"434"->"6"[arrowhead=dot];
"436"->"434"[arrowhead=dot];
"436"->"6"[arrowhead=dot];
"438"->"396"[arrowhead=dot];
"438"->"280"[arrowhead=dot];
"440"->"280"[arrowhead=none];
"440"->"28"[arrowhead=dot];
"442"->"440"[arrowhead=dot];
"442"->"438"[arrowhead=dot];
"444"->"64"[arrowhead=dot];
"444"->"8"[arrowhead=none];
"446"->"64"[arrowhead=none];
"446"->"8"[arrowhead=dot];
"448"->"446"[arrowhead=dot];
"448"->"444"[arrowhead=dot];
"450"->"60"[arrowhead=dot];
"450"->"2"[arrowhead=dot];
"452"->"448"[arrowhead=dot];
"452"->"2"[arrowhead=none];
"454"->"452"[arrowhead=dot];
"454"->"450"[arrowhead=dot];
"456"->"454"[arrowhead=dot];
"456"->"6"[arrowhead=dot];
"458"->"64"[arrowhead=dot];
"458"->"6"[arrowhead=none];
"460"->"458"[arrowhead=dot];
"460"->"456"[arrowhead=dot];
"462"->"64"[arrowhead=dot];
"462"->"36"[arrowhead=dot];
"464"->"462"[arrowhead=dot];
"464"->"190"[arrowhead=dot];
"466"->"64"[arrowhead=none];
"466"->"8"[arrowhead=none];
"468"->"466"[arrowhead=none];
"468"->"36"[arrowhead=none];
"470"->"466"[arrowhead=dot];
"470"->"36"[arrowhead=dot];
"472"->"470"[arrowhead=dot];
"472"->"468"[arrowhead=dot];
"474"->"472"[arrowhead=dot];
"474"->"10"[arrowhead=none];
"476"->"466"[arrowhead=none];
"476"->"36"[arrowhead=dot];
"478"->"466"[arrowhead=dot];
"478"->"36"[arrowhead=none];
"480"->"478"[arrowhead=dot];
"480"->"476"[arrowhead=dot];
"482"->"480"[arrowhead=dot];
"482"->"10"[arrowhead=dot];
"484"->"482"[arrowhead=dot];
"484"->"474"[arrowhead=dot];
"486"->"30"[arrowhead=dot];
"486"->"2"[arrowhead=dot];
"488"->"484"[arrowhead=dot];
"488"->"2"[arrowhead=none];
"490"->"488"[arrowhead=dot];
"490"->"486"[arrowhead=dot];
"492"->"490"[arrowhead=dot];
"492"->"6"[arrowhead=dot];
"494"->"464"[arrowhead=dot];
"494"->"6"[arrowhead=none];
"496"->"494"[arrowhead=dot];
"496"->"492"[arrowhead=dot];
"498"->"462"[arrowhead=dot];
"498"->"52"[arrowhead=none];
"500"->"462"[arrowhead=none];
"500"->"52"[arrowhead=dot];
"502"->"500"[arrowhead=dot];
"502"->"498"[arrowhead=dot];
"504"->"476"[arrowhead=dot];
"504"->"36"[arrowhead=dot];
"506"->"504"[arrowhead=dot];
"506"->"10"[arrowhead=none];
"508"->"468"[arrowhead=none];
"508"->"10"[arrowhead=dot];
"510"->"508"[arrowhead=dot];
"510"->"506"[arrowhead=dot];
"512"->"510"[arrowhead=dot];
"512"->"52"[arrowhead=none];
"514"->"510"[arrowhead=none];
"514"->"52"[arrowhead=dot];
"516"->"514"[arrowhead=dot];
"516"->"512"[arrowhead=dot];
"518"->"516"[arrowhead=dot];
"518"->"12"[arrowhead=none];
"520"->"510"[arrowhead=dot];
"520"->"52"[arrowhead=dot];
"522"->"510"[arrowhead=none];
"522"->"52"[arrowhead=none];
"524"->"522"[arrowhead=dot];
"524"->"520"[arrowhead=dot];
"526"->"524"[arrowhead=dot];
"526"->"12"[arrowhead=dot];
"528"->"526"[arrowhead=dot];
"528"->"518"[arrowhead=dot];
"530"->"48"[arrowhead=dot];
"530"->"2"[arrowhead=dot];
"532"->"528"[arrowhead=dot];
"532"->"2"[arrowhead=none];
"534"->"532"[arrowhead=dot];
"534"->"530"[arrowhead=dot];
"536"->"534"[arrowhead=dot];
"536"->"6"[arrowhead=dot];
"538"->"502"[arrowhead=dot];
"538"->"6"[arrowhead=none];
"540"->"538"[arrowhead=dot];
"540"->"536"[arrowhead=dot];
"542"->"500"[arrowhead=dot];
"542"->"72"[arrowhead=none];
"544"->"500"[arrowhead=none];
"544"->"72"[arrowhead=dot];
"546"->"544"[arrowhead=dot];
"546"->"542"[arrowhead=dot];
"548"->"520"[arrowhead=dot];
"548"->"52"[arrowhead=dot];
"550"->"548"[arrowhead=dot];
"550"->"12"[arrowhead=none];
"552"->"512"[arrowhead=none];
"552"->"12"[arrowhead=dot];
"554"->"552"[arrowhead=dot];
"554"->"550"[arrowhead=dot];
"556"->"554"[arrowhead=dot];
"556"->"72"[arrowhead=none];
"558"->"554"[arrowhead=none];
"558"->"72"[arrowhead=dot];
"560"->"558"[arrowhead=dot];
"560"->"556"[arrowhead=dot];
"562"->"560"[arrowhead=dot];
"562"->"14"[arrowhead=none];
"564"->"554"[arrowhead=dot];
"564"->"72"[arrowhead=dot];
"566"->"554"[arrowhead=none];
"566"->"72"[arrowhead=none];
"568"->"566"[arrowhead=dot];
"568"->"564"[arrowhead=dot];
"570"->"568"[arrowhead=dot];
"570"->"14"[arrowhead=dot];
"572"->"570"[arrowhead=dot];
"572"->"562"[arrowhead=dot];
"574"->"66"[arrowhead=dot];
"574"->"2"[arrowhead=dot];
"576"->"572"[arrowhead=dot];
"576"->"2"[arrowhead=none];
"578"->"576"[arrowhead=dot];
"578"->"574"[arrowhead=dot];
"580"->"578"[arrowhead=dot];
"580"->"6"[arrowhead=dot];
"582"->"546"[arrowhead=dot];
"582"->"6"[arrowhead=none];
"584"->"582"[arrowhead=dot];
"584"->"580"[arrowhead=dot];
"586"->"544"[arrowhead=dot];
"586"->"40"[arrowhead=none];
"588"->"544"[arrowhead=none];
"588"->"40"[arrowhead=dot];
"590"->"588"[arrowhead=dot];
"590"->"586"[arrowhead=dot];
"592"->"564"[arrowhead=dot];
"592"->"72"[arrowhead=dot];
"594"->"592"[arrowhead=dot];
"594"->"14"[arrowhead=none];
"596"->"556"[arrowhead=none];
"596"->"14"[arrowhead=dot];
"598"->"596"[arrowhead=dot];
"598"->"594"[arrowhead=dot];
"600"->"598"[arrowhead=dot];
"600"->"40"[arrowhead=none];
"602"->"598"[arrowhead=none];
"602"->"40"[arrowhead=dot];
"604"->"602"[arrowhead=dot];
"604"->"600"[arrowhead=dot];
"606"->"604"[arrowhead=dot];
"606"->"16"[arrowhead=none];
"608"->"598"[arrowhead=dot];
"608"->"40"[arrowhead=dot];
"610"->"598"[arrowhead=none];
"610"->"40"[arrowhead=none];
"612"->"610"[arrowhead=dot];
"612"->"608"[arrowhead=dot];
"614"->"612"[arrowhead=dot];
"614"->"16"[arrowhead=dot];
"616"->"614"[arrowhead=dot];
"616"->"606"[arrowhead=dot];
"618"->"34"[arrowhead=dot];
"618"->"2"[arrowhead=dot];
"620"->"616"[arrowhead=dot];
"620"->"2"[arrowhead=none];
"622"->"620"[arrowhead=dot];
"622"->"618"[arrowhead=dot];
"624"->"622"[arrowhead=dot];
"624"->"6"[arrowhead=dot];
"626"->"590"[arrowhead=dot];
"626"->"6"[arrowhead=none];
"628"->"626"[arrowhead=dot];
"628"->"624"[arrowhead=dot];
"630"->"588"[arrowhead=dot];
"630"->"56"[arrowhead=none];
"632"->"588"[arrowhead=none];
"632"->"56"[arrowhead=dot];
"634"->"632"[arrowhead=dot];
"634"->"630"[arrowhead=dot];
"636"->"608"[arrowhead=dot];
"636"->"40"[arrowhead=dot];
"638"->"636"[arrowhead=dot];
"638"->"16"[arrowhead=none];
"640"->"600"[arrowhead=none];
"640"->"16"[arrowhead=dot];
"642"->"640"[arrowhead=dot];
"642"->"638"[arrowhead=dot];
"644"->"642"[arrowhead=dot];
"644"->"56"[arrowhead=none];
"646"->"642"[arrowhead=none];
"646"->"56"[arrowhead=dot];
"648"->"646"[arrowhead=dot];
"648"->"644"[arrowhead=dot];
"650"->"648"[arrowhead=dot];
"650"->"18"[arrowhead=none];
"652"->"642"[arrowhead=dot];
"652"->"56"[arrowhead=dot];
"654"->"642"[arrowhead=none];
"654"->"56"[arrowhead=none];
"656"->"654"[arrowhead=dot];
"656"->"652"[arrowhead=dot];
"658"->"656"[arrowhead=dot];
"658"->"18"[arrowhead=dot];
"660"->"658"[arrowhead=dot];
"660"->"650"[arrowhead=dot];
"662"->"54"[arrowhead=dot];
"662"->"2"[arrowhead=dot];
"664"->"660"[arrowhead=dot];
"664"->"2"[arrowhead=none];
"666"->"664"[arrowhead=dot];
"666"->"662"[arrowhead=dot];
"668"->"666"[arrowhead=dot];
"668"->"6"[arrowhead=dot];
"670"->"634"[arrowhead=dot];
"670"->"6"[arrowhead=none];
"672"->"670"[arrowhead=dot];
"672"->"668"[arrowhead=dot];
"674"->"632"[arrowhead=dot];
"674"->"26"[arrowhead=none];
"676"->"632"[arrowhead=none];
"676"->"26"[arrowhead=dot];
"678"->"676"[arrowhead=dot];
"678"->"674"[arrowhead=dot];
"680"->"652"[arrowhead=dot];
"680"->"56"[arrowhead=dot];
"682"->"680"[arrowhead=dot];
"682"->"18"[arrowhead=none];
"684"->"644"[arrowhead=none];
"684"->"18"[arrowhead=dot];
"686"->"684"[arrowhead=dot];
"686"->"682"[arrowhead=dot];
"688"->"686"[arrowhead=dot];
"688"->"26"[arrowhead=none];
"690"->"686"[arrowhead=none];
"690"->"26"[arrowhead=dot];
"692"->"690"[arrowhead=dot];
"692"->"688"[arrowhead=dot];
"694"->"692"[arrowhead=dot];
"694"->"20"[arrowhead=none];
"696"->"686"[arrowhead=dot];
"696"->"26"[arrowhead=dot];
"698"->"686"[arrowhead=none];
"698"->"26"[arrowhead=none];
"700"->"698"[arrowhead=dot];
"700"->"696"[arrowhead=dot];
"702"->"700"[arrowhead=dot];
"702"->"20"[arrowhead=dot];
"704"->"702"[arrowhead=dot];
"704"->"694"[arrowhead=dot];
"706"->"70"[arrowhead=dot];
"706"->"2"[arrowhead=dot];
"708"->"704"[arrowhead=dot];
"708"->"2"[arrowhead=none];
"710"->"708"[arrowhead=dot];
"710"->"706"[arrowhead=dot];
"712"->"710"[arrowhead=dot];
"712"->"6"[arrowhead=dot];
"714"->"678"[arrowhead=dot];
"714"->"6"[arrowhead=none];
"716"->"714"[arrowhead=dot];
"716"->"712"[arrowhead=dot];
"718"->"676"[arrowhead=dot];
"718"->"44"[arrowhead=none];
"720"->"676"[arrowhead=none];
"720"->"44"[arrowhead=dot];
"722"->"720"[arrowhead=dot];
"722"->"718"[arrowhead=dot];
"724"->"696"[arrowhead=dot];
"724"->"26"[arrowhead=dot];
"726"->"724"[arrowhead=dot];
"726"->"20"[arrowhead=none];
"728"->"688"[arrowhead=none];
"728"->"20"[arrowhead=dot];
"730"->"728"[arrowhead=dot];
"730"->"726"[arrowhead=dot];
"732"->"730"[arrowhead=dot];
"732"->"44"[arrowhead=none];
"734"->"730"[arrowhead=none];
"734"->"44"[arrowhead=dot];
"736"->"734"[arrowhead=dot];
"736"->"732"[arrowhead=dot];
"738"->"736"[arrowhead=dot];
"738"->"22"[arrowhead=none];
"740"->"730"[arrowhead=dot];
"740"->"44"[arrowhead=dot];
"742"->"730"[arrowhead=none];
"742"->"44"[arrowhead=none];
"744"->"742"[arrowhead=dot];
"744"->"740"[arrowhead=dot];
"746"->"744"[arrowhead=dot];
"746"->"22"[arrowhead=dot];
"748"->"746"[arrowhead=dot];
"748"->"738"[arrowhead=dot];
"750"->"38"[arrowhead=dot];
"750"->"2"[arrowhead=dot];
"752"->"748"[arrowhead=dot];
"752"->"2"[arrowhead=none];
"754"->"752"[arrowhead=dot];
"754"->"750"[arrowhead=dot];
"756"->"754"[arrowhead=dot];
"756"->"6"[arrowhead=dot];
"758"->"722"[arrowhead=dot];
"758"->"6"[arrowhead=none];
"760"->"758"[arrowhead=dot];
"760"->"756"[arrowhead=dot];
"762"->"336"[arrowhead=dot];
"762"->"280"[arrowhead=dot];
"764"->"280"[arrowhead=none];
"764"->"32"[arrowhead=dot];
"766"->"764"[arrowhead=dot];
"766"->"762"[arrowhead=dot];
"768"->"436"[arrowhead=dot];
"768"->"280"[arrowhead=dot];
"770"->"280"[arrowhead=none];
"770"->"42"[arrowhead=dot];
"772"->"770"[arrowhead=dot];
"772"->"768"[arrowhead=dot];
"774"->"376"[arrowhead=dot];
"774"->"280"[arrowhead=dot];
"776"->"280"[arrowhead=none];
"776"->"46"[arrowhead=dot];
"778"->"776"[arrowhead=dot];
"778"->"774"[arrowhead=dot];
"780"->"316"[arrowhead=dot];
"780"->"280"[arrowhead=dot];
"782"->"280"[arrowhead=none];
"782"->"50"[arrowhead=dot];
"784"->"782"[arrowhead=dot];
"784"->"780"[arrowhead=dot];
"786"->"416"[arrowhead=dot];
"786"->"280"[arrowhead=dot];
"788"->"280"[arrowhead=none];
"788"->"58"[arrowhead=dot];
"790"->"788"[arrowhead=dot];
"790"->"786"[arrowhead=dot];
"792"->"356"[arrowhead=dot];
"792"->"280"[arrowhead=dot];
"794"->"280"[arrowhead=none];
"794"->"62"[arrowhead=dot];
"796"->"794"[arrowhead=dot];
"796"->"792"[arrowhead=dot];
"798"->"296"[arrowhead=dot];
"798"->"280"[arrowhead=dot];
"800"->"280"[arrowhead=none];
"800"->"68"[arrowhead=dot];
"802"->"800"[arrowhead=dot];
"802"->"798"[arrowhead=dot];
O0[shape=triangle,color=blue];
O0 -> "166"[arrowhead=dot];
"26"[shape=box,color=magenta];
L0 [shape=diamond,color=magenta];
L0 -> "258"[arrowhead=dot];
L0 -> "26"[style=dashed,color=magenta,arrowhead=none];
"28"[shape=box,color=magenta];
L1 [shape=diamond,color=magenta];
L1 -> "442"[arrowhead=none];
L1 -> "28"[style=dashed,color=magenta,arrowhead=none];
"30"[shape=box,color=magenta];
L2 [shape=diamond,color=magenta];
L2 -> "496"[arrowhead=none];
L2 -> "30"[style=dashed,color=magenta,arrowhead=none];
"32"[shape=box,color=magenta];
L3 [shape=diamond,color=magenta];
L3 -> "766"[arrowhead=none];
L3 -> "32"[style=dashed,color=magenta,arrowhead=none];
"34"[shape=box,color=magenta];
L4 [shape=diamond,color=magenta];
L4 -> "628"[arrowhead=none];
L4 -> "34"[style=dashed,color=magenta,arrowhead=none];
"36"[shape=box,color=magenta];
L5 [shape=diamond,color=magenta];
L5 -> "188"[arrowhead=dot];
L5 -> "36"[style=dashed,color=magenta,arrowhead=none];
"38"[shape=box,color=magenta];
L6 [shape=diamond,color=magenta];
L6 -> "760"[arrowhead=none];
L6 -> "38"[style=dashed,color=magenta,arrowhead=none];
"40"[shape=box,color=magenta];
L7 [shape=diamond,color=magenta];
L7 -> "230"[arrowhead=dot];
L7 -> "40"[style=dashed,color=magenta,arrowhead=none];
"42"[shape=box,color=magenta];
L8 [shape=diamond,color=magenta];
L8 -> "772"[arrowhead=none];
L8 -> "42"[style=dashed,color=magenta,arrowhead=none];
"44"[shape=box,color=magenta];
L9 [shape=diamond,color=magenta];
L9 -> "272"[arrowhead=dot];
L9 -> "44"[style=dashed,color=magenta,arrowhead=none];
"46"[shape=box,color=magenta];
L10 [shape=diamond,color=magenta];
L10 -> "778"[arrowhead=none];
L10 -> "46"[style=dashed,color=magenta,arrowhead=none];
"48"[shape=box,color=magenta];
L11 [shape=diamond,color=magenta];
L11 -> "540"[arrowhead=none];
L11 -> "48"[style=dashed,color=magenta,arrowhead=none];
"50"[shape=box,color=magenta];
L12 [shape=diamond,color=magenta];
L12 -> "784"[arrowhead=none];
L12 -> "50"[style=dashed,color=magenta,arrowhead=none];
"52"[shape=box,color=magenta];
L13 [shape=diamond,color=magenta];
L13 -> "202"[arrowhead=dot];
L13 -> "52"[style=dashed,color=magenta,arrowhead=none];
"54"[shape=box,color=magenta];
L14 [shape=diamond,color=magenta];
L14 -> "672"[arrowhead=none];
L14 -> "54"[style=dashed,color=magenta,arrowhead=none];
"56"[shape=box,color=magenta];
L15 [shape=diamond,color=magenta];
L15 -> "244"[arrowhead=dot];
L15 -> "56"[style=dashed,color=magenta,arrowhead=none];
"58"[shape=box,color=magenta];
L16 [shape=diamond,color=magenta];
L16 -> "790"[arrowhead=none];
L16 -> "58"[style=dashed,color=magenta,arrowhead=none];
"60"[shape=box,color=magenta];
L17 [shape=diamond,color=magenta];
L17 -> "460"[arrowhead=none];
L17 -> "60"[style=dashed,color=magenta,arrowhead=none];
"62"[shape=box,color=magenta];
L18 [shape=diamond,color=magenta];
L18 -> "796"[arrowhead=none];
L18 -> "62"[style=dashed,color=magenta,arrowhead=none];
"64"[shape=box,color=magenta];
L19 [shape=diamond,color=magenta];
L19 -> "176"[arrowhead=dot];
L19 -> "64"[style=dashed,color=magenta,arrowhead=none];
"66"[shape=box,color=magenta];
L20 [shape=diamond,color=magenta];
L20 -> "584"[arrowhead=none];
L20 -> "66"[style=dashed,color=magenta,arrowhead=none];
"68"[shape=box,color=magenta];
L21 [shape=diamond,color=magenta];
L21 -> "802"[arrowhead=none];
L21 -> "68"[style=dashed,color=magenta,arrowhead=none];
"70"[shape=box,color=magenta];
L22 [shape=diamond,color=magenta];
L22 -> "716"[arrowhead=none];
L22 -> "70"[style=dashed,color=magenta,arrowhead=none];
"72"[shape=box,color=magenta];
L23 [shape=diamond,color=magenta];
L23 -> "216"[arrowhead=dot];
L23 -> "72"[style=dashed,color=magenta,arrowhead=none];
}
